…
For example, we create a basic design object below, where we look at a classic
simple random sample (SRS) of the schools in the API dataset. Let's take a look
at the dataset first.


::: {.cell}

```{.r .cell-code}
dplyr::as_tibble(apisrs)
```

::: {.cell-output .cell-output-stdout}
```
# A tibble: 200 × 39
   cds       stype name  sname  snum dname  dnum cname  cnum  flag pcttest api00
   <chr>     <fct> <chr> <chr> <dbl> <chr> <int> <chr> <int> <int>   <int> <int>
 1 15739081… H     "McF… McFa…  1039 McFa…   432 Kern     14    NA      98   462
 2 19642126… E     "Sto… Stow…  1124 ABC …     1 Los …    18    NA     100   878
 3 30664493… H     "Bre… Brea…  2868 Brea…    79 Oran…    29    NA      98   734
 4 19644516… E     "Ala… Alam…  1273 Down…   187 Los …    18    NA      99   772
 5 40688096… E     "Sun… Sunn…  4926 San …   640 San …    39    NA      99   739
 6 19734456… E     "Los… Los …  2463 Haci…   284 Los …    18    NA      93   835
 7 19647336… M     "Nor… Nort…  2031 Los …   401 Los …    18    NA      98   456
 8 19647336… E     "Gla… Glas…  1736 Los …   401 Los …    18    NA      99   506
 9 19648166… E     "Max… Maxs…  2142 Moun…   470 Los …    18    NA     100   543
10 38684786… E     "Tre… Trea…  4754 San …   632 San …    37    NA      90   649
# ℹ 190 more rows
# ℹ 27 more variables: api99 <int>, target <int>, growth <int>, sch.wide <fct>,
#   comp.imp <fct>, both <fct>, awards <fct>, meals <int>, ell <int>,
#   yr.rnd <fct>, mobility <int>, acs.k3 <int>, acs.46 <int>, acs.core <int>,
#   pct.resp <int>, not.hsg <int>, hsg <int>, some.col <int>, col.grad <int>,
#   grad.sch <int>, avg.ed <dbl>, full <int>, emer <int>, enroll <int>,
#   api.stu <int>, pw <dbl>, fpc <dbl>
```
…
::: {.cell}

```{.r .cell-code}
names3 <- load("Data/nhanes/nhanes3.rda")
as_tibble(nhanes3)
```

::: {.cell-output .cell-output-stdout}
```
# A tibble: 17,030 × 16
    SEQN SDPPSU6 SDPSTRA6 WTPFHX6 HSAGEIR HSSEX  DMARACER BMPWTLBS BMPHTIN
   <dbl>   <dbl>    <dbl>   <dbl>   <dbl> <fct>  <fct>       <dbl>   <dbl>
 1     3       1       44   1735.      21 male   white        180.    70.4
 2     4       1       43   1725.      32 female white        136.    63.9
 3     9       2       43  19452.      48 female white        150.    61.8
 4    10       1        6  27770.      35 male   white        204.    69.8
 5    11       2       40   1246.      48 male   white        155.    66.2
 6    19       1       35   3861.      44 male   black        190.    70.2
 7    34       1       13   5032.      42 female black        126.    62.6
 8    44       1        8  28149.      24 female white        123.    64.4
 9    45       1       22   4582.      67 female black        150.    64.3
10    48       1       24  26919.      56 female white        240.    67.6
# ℹ 17,020 more rows
# ℹ 7 more variables: PEPMNK1R <dbl>, PEPMNK5R <dbl>, HAR1 <fct>, HAR3 <fct>,
#   SMOKE <fct>, TCP <dbl>, HBP <fct>
```
…
::: {.cell}

```{.r .cell-code}
data(api)
as_tibble(apiclus2)
```

::: {.cell-output .cell-output-stdout}
```
# A tibble: 126 × 40
   cds       stype name  sname  snum dname  dnum cname  cnum  flag pcttest api00
   <chr>     <fct> <chr> <chr> <dbl> <chr> <int> <chr> <int> <int>   <int> <int>
 1 31667796… E     Alta… Alta…  3269 Alta…    15 Plac…    30    NA     100   821
 2 55751846… E     Tena… Tena…  5979 Big …    63 Tuol…    54    NA     100   773
 3 41688746… E     Pano… Pano…  4958 Bris…    83 San …    40    NA      98   600
 4 41688746… M     Lipm… Lipm…  4957 Bris…    83 San …    40    NA     100   740
 5 41688746… E     Bris… Bris…  4956 Bris…    83 San …    40    NA      98   716
 6 40687266… E     Cayu… Cayu…  4915 Cayu…   117 San …    39    NA     100   811
 7 20651936… E     Full… Full…  2548 Chow…   132 Made…    19    NA     100   472
 8 20651936… E     Fair… Fair…  2550 Chow…   132 Made…    19    NA     100   520
 9 20651936… M     Wils… Wils…  2549 Chow…   132 Made…    19    NA     100   568
10 06615980… H     Colu… Colu…   348 Colu…   152 Colu…     5    NA      96   591
# ℹ 116 more rows
# ℹ 28 more variables: api99 <int>, target <int>, growth <int>, sch.wide <fct>,
#   comp.imp <fct>, both <fct>, awards <fct>, meals <int>, ell <int>,
#   yr.rnd <fct>, mobility <int>, acs.k3 <int>, acs.46 <int>, acs.core <int>,
#   pct.resp <int>, not.hsg <int>, hsg <int>, some.col <int>, col.grad <int>,
#   grad.sch <int>, avg.ed <dbl>, full <int>, emer <int>, enroll <int>,
#   api.stu <int>, pw <dbl>, fpc1 <dbl>, fpc2 <int[1d]>
```
…
::: {.cell}

```{.r .cell-code}
data(election)
election <- as_tibble(election) %>%
  mutate(
    votes = Bush + Kerry + Nader,
    p = 40 * votes / sum(votes)
  )
election
```

::: {.cell-output .cell-output-stdout}
```
# A tibble: 4,600 × 8
   County   TotPrecincts PrecinctsReporting   Bush Kerry Nader  votes       p
   <fct>           <int>              <int>  <int> <int> <int>  <int>   <dbl>
 1 Alaska            439                439 151876 86064  3890 241830 0.0832 
 2 Autauga            22                 22  15212  4774    74  20060 0.00691
 3 Baldwin            50                 50  52910 15579   371  68860 0.0237 
 4 Barbour            24                 24   5893  4826    26  10745 0.00370
 5 Bibb               16                 16   5471  2089    12   7572 0.00261
 6 Blount             26                 26  17364  3932    92  21388 0.00736
 7 Bullock            27                 27   1494  3210     3   4707 0.00162
 8 Butler             27                 27   4978  3409    13   8400 0.00289
 9 Calhoun            53                 53  29806 15076   182  45064 0.0155 
10 Chambers           24                 24   7618  5346    42  13006 0.00448
# ℹ 4,590 more rows
```
…
